%YAML 1.1
%TAG !u! tag:unity3d.com,2011:
--- !u!74 &7400000
AnimationClip:
  m_ObjectHideFlags: 0
  m_CorrespondingSourceObject: {fileID: 0}
  m_PrefabInstance: {fileID: 0}
  m_PrefabAsset: {fileID: 0}
  m_Name: Robo1 Die_Event
  serializedVersion: 6
  m_Legacy: 0
  m_Compressed: 0
  m_UseHighQualityCurve: 1
  m_RotationCurves:
  - curve:
      serializedVersion: 2
      m_Curve:
      - serializedVersion: 3
        time: 0
        value: {x: -0.0010725595, y: -0.0011917913, z: -0.0017712004, w: 1.0007477}
        inSlope: {x: -1.821574, y: -0.013980818, z: -0.21149229, w: 0.013887299}
        outSlope: {x: -1.821574, y: -0.013980818, z: -0.21149229, w: 0.013887299}
        tangentMode: 0
        weightedMode: 0
        inWeight: {x: 0.33333334, y: 0.33333334, z: 0.33333334, w: 0.33333334}
        outWeight: {x: 0.33333334, y: 0.33333334, z: 0.33333334, w: 0.33333334}
      - serializedVersion: 3
        time: 0.04166794
        value: {x: -0.086183816, y: 0.0024375059, z: -0.02816606, w: 0.99587804}
        inSlope: {x: -2.294107, y: 0.23141177, z: -1.1819124, w: -0.28306463}
        outSlope: {x: -2.294107, y: 0.23141177, z: -1.1819124, w: -0.28306463}
        tangentMode: 0
        weightedMode: 0
        inWeight: {x: 0.33333334, y: 0.33333334, z: 0.33333334, w: 0.33333334}
        outWeight: {x: 0.33333334, y: 0.33333334, z: 0.33333334, w: 0.33333334}
      - serializedVersion: 3
        time: 0.08333397
        value: {x: -0.19117503, y: 0.01928402, z: -0.09849163, w: 0.97641164}
        inSlope: {x: -2.5159745, y: 0.6827273, z: -1.9116108, w: -0.73320055}
        outSlope: {x: -2.5159745, y: 0.6827273, z: -1.9116108, w: -0.73320055}
        tangentMode: 0
        weightedMode: 0
        inWeight: {x: 0.33333334, y: 0.33333334, z: 0.33333334, w: 0.33333334}
        outWeight: {x: 0.33333334, y: 0.33333334, z: 0.33333334, w: 0.33333334}
      - serializedVersion: 3
        time: 0.1250019
        value: {x: -0.29584995, y: 0.059332408, z: -0.1874686, w: 0.934777}
        inSlope: {x: -2.286641, y: 1.1935905, z: -2.085367, w: -1.2140393}
        outSlope: {x: -2.286641, y: 1.1935905, z: -2.085367, w: -1.2140393}
        tangentMode: 0
        weightedMode: 0
        inWeight: {x: 0.33333334, y: 0.33333334, z: 0.33333334, w: 0.33333334}
        outWeight: {x: 0.33333334, y: 0.33333334, z: 0.33333334, w: 0.33333334}
      - serializedVersion: 3
        time: 0.16666794
        value: {x: -0.38173032, y: 0.11875021, z: -0.27227363, w: 0.87524134}
        inSlope: {x: -1.6973107, y: 1.4616127, z: -1.7956316, w: -1.4513032}
        outSlope: {x: -1.6973107, y: 1.4616127, z: -1.7956316, w: -1.4513032}
        tangentMode: 0
        weightedMode: 0
        inWeight: {x: 0.33333334, y: 0.33333334, z: 0.33333334, w: 0.33333334}
        outWeight: {x: 0.33333334, y: 0.33333334, z: 0.33333334, w: 0.33333334}
      - serializedVersion: 3
        time: 0.2500019
        value: {x: -0.46400714, y: 0.24381764, z: -0.39613256, w: 0.75387627}
        inSlope: {x: -0.3675133, y: 1.5655062, z: -1.4554282, w: -1.5056741}
        outSlope: {x: -0.3675133, y: 1.5655062, z: -1.4554282, w: -1.5056741}
        tangentMode: 0
        weightedMode: 0
        inWeight: {x: 0.33333334, y: 0.33333334, z: 0.33333334, w: 0.33333334}
        outWeight: {x: 0.33333334, y: 0.33333334, z: 0.33333334, w: 0.33333334}
      - serializedVersion: 3
        time: 0.33333397
        value: {x: -0.45572254, y: 0.37220836, z: -0.5114743, w: 0.6262363}
        inSlope: {x: 0.3493516, y: 1.2369134, z: -1.0697327, w: -1.3075104}
        outSlope: {x: 0.3493516, y: 1.2369134, z: -1.0697327, w: -1.3075104}
        tangentMode: 0
        weightedMode: 0
        inWeight: {x: 0.33333334, y: 0.33333334, z: 0.33333334, w: 0.33333334}
        outWeight: {x: 0.33333334, y: 0.33333334, z: 0.33333334, w: 0.33333334}
      - serializedVersion: 3
        time: 0.3750019
        value: {x: -0.43880424, y: 0.41466781, z: -0.5475335, w: 0.5794036}
        inSlope: {x: 0.30315432, y: 0.69900036, z: -0.59412575, w: -0.78299665}
        outSlope: {x: 0.30315432, y: 0.69900036, z: -0.59412575, w: -0.78299665}
        tangentMode: 0
        weightedMode: 0
        inWeight: {x: 0.33333334, y: 0.33333334, z: 0.33333334, w: 0.33333334}
        outWeight: {x: 0.33333334, y: 0.33333334, z: 0.33333334, w: 0.33333334}
      - serializedVersion: 3
        time: 0.5000019
        value: {x: -0.43045932, y: 0.43045932, z: -0.5609855, w: 0.5609855}
        inSlope: {x: 0, y: 0, z: 0, w: 0}
        outSlope: {x: 0, y: 0, z: 0, w: 0}
        tangentMode: 0
        weightedMode: 0
        inWeight: {x: 0.33333334, y: 0.33333334, z: 0.33333334, w: 0.33333334}
        outWeight: {x: 0.33333334, y: 0.33333334, z: 0.33333334, w: 0.33333334}
      - serializedVersion: 3
        time: 0.79166794
        value: {x: -0.43045932, y: 0.43045932, z: -0.5609855, w: 0.5609855}
        inSlope: {x: 0, y: 0, z: 0, w: 0}
        outSlope: {x: 0, y: 0, z: 0, w: 0}
        tangentMode: 0
        weightedMode: 0
        inWeight: {x: 0.33333334, y: 0.33333334, z: 0.33333334, w: 0.33333334}
        outWeight: {x: 0.33333334, y: 0.33333334, z: 0.33333334, w: 0.33333334}
      - serializedVersion: 3
        time: 0.83333397
        value: {x: -0.43057427, y: 0.4287501, z: -0.56079364, w: 0.56273824}
        inSlope: {x: -0.002772163, y: -0.089646384, z: 0.013445429, w: 0.0918914}
        outSlope: {x: -0.002772163, y: -0.089646384, z: 0.013445429, w: 0.0918914}
        tangentMode: 0
        weightedMode: 0
        inWeight: {x: 0.33333334, y: 0.33333334, z: 0.33333334, w: 0.33333334}
        outWeight: {x: 0.33333334, y: 0.33333334, z: 0.33333334, w: 0.33333334}
      m_PreInfinity: 2
      m_PostInfinity: 2
      m_RotationOrder: 4
    path: Body_joint
  - curve:
      serializedVersion: 2
      m_Curve:
      - serializedVersion: 3
        time: 0.0000019073486
        value: {x: -0.0000002769484, y: 0, z: -0, w: 1}
        inSlope: {x: -0.21779852, y: 0, z: 0, w: 0.0019761913}
        outSlope: {x: -0.21779852, y: 0, z: 0, w: 0.0019761913}
        tangentMode: 0
        weightedMode: 0
        inWeight: {x: 0.33333334, y: 0.33333334, z: 0.33333334, w: 0.33333334}
        outWeight: {x: 0.33333334, y: 0.33333334, z: 0.33333334, w: 0.33333334}
      - serializedVersion: 3
        time: 0.1250019
        value: {x: 0, y: -0, z: -0, w: 1}
        inSlope: {x: 0, y: 1.1410474e-10, z: 0, w: 0}
        outSlope: {x: 0, y: 1.1410474e-10, z: 0, w: 0}
        tangentMode: 0
        weightedMode: 0
        inWeight: {x: 0.33333334, y: 0.33333334, z: 0.33333334, w: 0.33333334}
        outWeight: {x: 0.33333334, y: 0.33333334, z: 0.33333334, w: 0.33333334}
      - serializedVersion: 3
        time: 0.16666794
        value: {x: 0, y: 9.508583e-12, z: -0, w: 1}
        inSlope: {x: 0, y: 0, z: 0, w: 0}
        outSlope: {x: 0, y: 0, z: 0, w: 0}
        tangentMode: 0
        weightedMode: 0
        inWeight: {x: 0.33333334, y: 0.33333334, z: 0.33333334, w: 0.33333334}
        outWeight: {x: 0.33333334, y: 0.33333334, z: 0.33333334, w: 0.33333334}
      - serializedVersion: 3
        time: 0.20833397
        value: {x: 0, y: -0, z: -0, w: 1}
        inSlope: {x: 0, y: -0.9791079, z: 0, w: -0.040011615}
        outSlope: {x: 0, y: -0.9791079, z: 0, w: -0.040011615}
        tangentMode: 0
        weightedMode: 0
        inWeight: {x: 0.33333334, y: 0.33333334, z: 0.33333334, w: 0.33333334}
        outWeight: {x: 0.33333334, y: 0.33333334, z: 0.33333334, w: 0.33333334}
      - serializedVersion: 3
        time: 0.2500019
        value: {x: 0, y: -0.08159482, z: -0, w: 0.9966656}
        inSlope: {x: 0, y: -3.2754657, z: 0, w: -0.4556831}
        outSlope: {x: 0, y: -3.2754657, z: 0, w: -0.4556831}
        tangentMode: 0
        weightedMode: 0
        inWeight: {x: 0.33333334, y: 0.33333334, z: 0.33333334, w: 0.33333334}
        outWeight: {x: 0.33333334, y: 0.33333334, z: 0.33333334, w: 0.33333334}
      - serializedVersion: 3
        time: 0.29166794
        value: {x: 0, y: -0.27295506, z: -0, w: 0.96202683}
        inSlope: {x: 0, y: -4.867938, z: 0, w: -1.4808601}
        outSlope: {x: 0, y: -4.867938, z: 0, w: -1.4808601}
        tangentMode: 0
        weightedMode: 0
        inWeight: {x: 0.33333334, y: 0.33333334, z: 0.33333334, w: 0.33333334}
        outWeight: {x: 0.33333334, y: 0.33333334, z: 0.33333334, w: 0.33333334}
      - serializedVersion: 3
        time: 0.33333397
        value: {x: 0, y: -0.48725012, z: -0, w: 0.87326247}
        inSlope: {x: 0, y: -4.4892297, z: 0, w: -2.3950202}
        outSlope: {x: 0, y: -4.4892297, z: 0, w: -2.3950202}
        tangentMode: 0
        weightedMode: 0
        inWeight: {x: 0.33333334, y: 0.33333334, z: 0.33333334, w: 0.33333334}
        outWeight: {x: 0.33333334, y: 0.33333334, z: 0.33333334, w: 0.33333334}
      - serializedVersion: 3
        time: 0.3750019
        value: {x: 0, y: -0.64705914, z: -0, w: 0.7624398}
        inSlope: {x: 0, y: -2.6382272, z: 0, w: -1.993833}
        outSlope: {x: 0, y: -2.6382272, z: 0, w: -1.993833}
        tangentMode: 0
        weightedMode: 0
        inWeight: {x: 0.33333334, y: 0.33333334, z: 0.33333334, w: 0.33333334}
        outWeight: {x: 0.33333334, y: 0.33333334, z: 0.33333334, w: 0.33333334}
      - serializedVersion: 3
        time: 0.41666794
        value: {x: -0, y: -0.70710635, z: 0, w: 0.7071072}
        inSlope: {x: 0, y: -0.7205832, z: 0, w: -0.66400564}
        outSlope: {x: 0, y: -0.7205832, z: 0, w: -0.66400564}
        tangentMode: 0
        weightedMode: 0
        inWeight: {x: 0.33333334, y: 0.33333334, z: 0.33333334, w: 0.33333334}
        outWeight: {x: 0.33333334, y: 0.33333334, z: 0.33333334, w: 0.33333334}
      - serializedVersion: 3
        time: 0.45833397
        value: {x: -0, y: -0.7071068, z: 0, w: 0.7071068}
        inSlope: {x: 0, y: -0.000005722133, z: 0, w: -0.0000042916}
        outSlope: {x: 0, y: -0.000005722133, z: 0, w: -0.0000042916}
        tangentMode: 0
        weightedMode: 0
        inWeight: {x: 0.33333334, y: 0.33333334, z: 0.33333334, w: 0.33333334}
        outWeight: {x: 0.33333334, y: 0.33333334, z: 0.33333334, w: 0.33333334}
      - serializedVersion: 3
        time: 0.83333397
        value: {x: -0, y: -0.7071068, z: 0, w: 0.7071068}
        inSlope: {x: 0, y: 0.048455667, z: 0, w: 0.048179585}
        outSlope: {x: 0, y: 0.048455667, z: 0, w: 0.048179585}
        tangentMode: 0
        weightedMode: 0
        inWeight: {x: 0.33333334, y: 0.33333334, z: 0.33333334, w: 0.33333334}
        outWeight: {x: 0.33333334, y: 0.33333334, z: 0.33333334, w: 0.33333334}
      m_PreInfinity: 2
      m_PostInfinity: 2
      m_RotationOrder: 4
    path: Body_joint/Eye_joint
  - curve:
      serializedVersion: 2
      m_Curve:
      - serializedVersion: 3
        time: 0
        value: {x: 0, y: -0, z: -0, w: 1}
        inSlope: {x: 0, y: 0, z: 0, w: 0}
        outSlope: {x: 0, y: 0, z: 0, w: 0}
        tangentMode: 0
        weightedMode: 0
        inWeight: {x: 0.33333334, y: 0.33333334, z: 0.33333334, w: 0.33333334}
        outWeight: {x: 0.33333334, y: 0.33333334, z: 0.33333334, w: 0.33333334}
      - serializedVersion: 3
        time: 0.83333397
        value: {x: 0, y: -0, z: -0, w: 1}
        inSlope: {x: 0, y: 0, z: 0, w: 0}
        outSlope: {x: 0, y: 0, z: 0, w: 0}
        tangentMode: 0
        weightedMode: 0
        inWeight: {x: 0.33333334, y: 0.33333334, z: 0.33333334, w: 0.33333334}
        outWeight: {x: 0.33333334, y: 0.33333334, z: 0.33333334, w: 0.33333334}
      m_PreInfinity: 2
      m_PostInfinity: 2
      m_RotationOrder: 4
    path: Body_joint/Eye_joint/Aim_joint
  - curve:
      serializedVersion: 2
      m_Curve:
      - serializedVersion: 3
        time: 0
        value: {x: 0, y: 0, z: 0.0000060212164, w: 1}
        inSlope: {x: 0, y: 0, z: -0.000009467826, w: 0}
        outSlope: {x: 0, y: 0, z: -0.000009467826, w: 0}
        tangentMode: 0
        weightedMode: 0
        inWeight: {x: 0.33333334, y: 0.33333334, z: 0.33333334, w: 0.33333334}
        outWeight: {x: 0.33333334, y: 0.33333334, z: 0.33333334, w: 0.33333334}
      - serializedVersion: 3
        time: 0.83333397
        value: {x: 0, y: -0, z: -0, w: 1}
        inSlope: {x: 0, y: 0, z: 0, w: 0}
        outSlope: {x: 0, y: 0, z: 0, w: 0}
        tangentMode: 0
        weightedMode: 0
        inWeight: {x: 0.33333334, y: 0.33333334, z: 0.33333334, w: 0.33333334}
        outWeight: {x: 0.33333334, y: 0.33333334, z: 0.33333334, w: 0.33333334}
      m_PreInfinity: 2
      m_PostInfinity: 2
      m_RotationOrder: 4
    path: Body_joint/Eye_joint/Aim_joint/Aim_joint2
  - curve:
      serializedVersion: 2
      m_Curve:
      - serializedVersion: 3
        time: 0.0000019073486
        value: {x: 0.00000010252648, y: -0.00000025641583, z: 0.38536772, w: 0.9227631}
        inSlope: {x: 0.08365922, y: -0.20041278, z: -0.034698084, w: 0.013027519}
        outSlope: {x: 0.08365922, y: -0.20041278, z: -0.034698084, w: 0.013027519}
        tangentMode: 0
        weightedMode: 0
        inWeight: {x: 0.33333334, y: 0.33333334, z: 0.33333334, w: 0.33333334}
        outWeight: {x: 0.33333334, y: 0.33333334, z: 0.33333334, w: 0.33333334}
      - serializedVersion: 3
        time: 0.08333397
        value: {x: 0.027038746, y: -0.05834296, z: 0.43328157, w: 0.89896166}
        inSlope: {x: 0.62446785, y: -1.1402382, z: 0.9260178, w: -0.55872476}
        outSlope: {x: 0.62446785, y: -1.1402382, z: 0.9260178, w: -0.55872476}
        tangentMode: 0
        weightedMode: 0
        inWeight: {x: 0.33333334, y: 0.33333334, z: 0.33333334, w: 0.33333334}
        outWeight: {x: 0.33333334, y: 0.33333334, z: 0.33333334, w: 0.33333334}
      - serializedVersion: 3
        time: 0.16666794
        value: {x: 0.098852724, y: -0.16441974, z: 0.5178113, w: 0.833706}
        inSlope: {x: 0.95244205, y: -1.1393974, z: 0.88458025, w: -0.87483764}
        outSlope: {x: 0.95244205, y: -1.1393974, z: 0.88458025, w: -0.87483764}
        tangentMode: 0
        weightedMode: 0
        inWeight: {x: 0.33333334, y: 0.33333334, z: 0.33333334, w: 0.33333334}
        outWeight: {x: 0.33333334, y: 0.33333334, z: 0.33333334, w: 0.33333334}
      - serializedVersion: 3
        time: 0.2500019
        value: {x: 0.18168615, y: -0.24466592, z: 0.5778965, w: 0.7570762}
        inSlope: {x: 1.1588577, y: -0.9067334, z: 0.645138, w: -1.0768197}
        outSlope: {x: 1.1588577, y: -0.9067334, z: 0.645138, w: -1.0768197}
        tangentMode: 0
        weightedMode: 0
        inWeight: {x: 0.33333334, y: 0.33333334, z: 0.33333334, w: 0.33333334}
        outWeight: {x: 0.33333334, y: 0.33333334, z: 0.33333334, w: 0.33333334}
      - serializedVersion: 3
        time: 0.33333397
        value: {x: 0.28820705, y: -0.3116062, z: 0.6221558, w: 0.6578453}
        inSlope: {x: 1.1325196, y: -0.56716835, z: 0.3364504, w: -1.056342}
        outSlope: {x: 1.1325196, y: -0.56716835, z: 0.3364504, w: -1.056342}
        tangentMode: 0
        weightedMode: 0
        inWeight: {x: 0.33333334, y: 0.33333334, z: 0.33333334, w: 0.33333334}
        outWeight: {x: 0.33333334, y: 0.33333334, z: 0.33333334, w: 0.33333334}
      - serializedVersion: 3
        time: 0.41666794
        value: {x: 0.34572142, y: -0.33556214, z: 0.6346986, w: 0.60417914}
        inSlope: {x: 0.1967087, y: -0.072797336, z: 0.034268424, w: -0.18355173}
        outSlope: {x: 0.1967087, y: -0.072797336, z: 0.034268424, w: -0.18355173}
        tangentMode: 0
        weightedMode: 0
        inWeight: {x: 0.33333334, y: 0.33333334, z: 0.33333334, w: 0.33333334}
        outWeight: {x: 0.33333334, y: 0.33333334, z: 0.33333334, w: 0.33333334}
      - serializedVersion: 3
        time: 0.5000019
        value: {x: 0.3457213, y: -0.33556217, z: 0.63469857, w: 0.6041793}
        inSlope: {x: 0, y: 0, z: 0, w: 0}
        outSlope: {x: 0, y: 0, z: 0, w: 0}
        tangentMode: 0
        weightedMode: 0
        inWeight: {x: 0.33333334, y: 0.33333334, z: 0.33333334, w: 0.33333334}
        outWeight: {x: 0.33333334, y: 0.33333334, z: 0.33333334, w: 0.33333334}
      - serializedVersion: 3
        time: 0.83333397
        value: {x: 0.3457213, y: -0.33556217, z: 0.63469857, w: 0.6041793}
        inSlope: {x: -0.03976307, y: 0.014148757, z: -0.0063898996, w: 0.037102044}
        outSlope: {x: -0.03976307, y: 0.014148757, z: -0.0063898996, w: 0.037102044}
        tangentMode: 0
        weightedMode: 0
        inWeight: {x: 0.33333334, y: 0.33333334, z: 0.33333334, w: 0.33333334}
        outWeight: {x: 0.33333334, y: 0.33333334, z: 0.33333334, w: 0.33333334}
      m_PreInfinity: 2
      m_PostInfinity: 2
      m_RotationOrder: 4
    path: Body_joint/Ammo_joint
  - curve:
      serializedVersion: 2
      m_Curve:
      - serializedVersion: 3
        time: 0
        value: {x: 0, y: -0, z: -0.3447506, w: 0.93869436}
        inSlope: {x: 0, y: 0, z: 0, w: 0}
        outSlope: {x: 0, y: 0, z: 0, w: 0}
        tangentMode: 0
        weightedMode: 0
        inWeight: {x: 0.33333334, y: 0.33333334, z: 0.33333334, w: 0.33333334}
        outWeight: {x: 0.33333334, y: 0.33333334, z: 0.33333334, w: 0.33333334}
      - serializedVersion: 3
        time: 0.83333397
        value: {x: 0, y: -0, z: -0.3447506, w: 0.93869436}
        inSlope: {x: 0, y: 0, z: 0, w: 0}
        outSlope: {x: 0, y: 0, z: 0, w: 0}
        tangentMode: 0
        weightedMode: 0
        inWeight: {x: 0.33333334, y: 0.33333334, z: 0.33333334, w: 0.33333334}
        outWeight: {x: 0.33333334, y: 0.33333334, z: 0.33333334, w: 0.33333334}
      m_PreInfinity: 2
      m_PostInfinity: 2
      m_RotationOrder: 4
    path: Body_joint/Ammo_joint/Ammo_joint2
  - curve:
      serializedVersion: 2
      m_Curve:
      - serializedVersion: 3
        time: 0
        value: {x: 0.0040403754, y: 0.7071979, z: 0.0040403754, w: 0.7071979}
        inSlope: {x: -0.7461108, y: 0.005197048, z: -0.7461108, w: 0.005197048}
        outSlope: {x: -0.7461108, y: 0.005197048, z: -0.7461108, w: 0.005197048}
        tangentMode: 0
        weightedMode: 0
        inWeight: {x: 0.33333334, y: 0.33333334, z: 0.33333334, w: 0.33333334}
        outWeight: {x: 0.33333334, y: 0.33333334, z: 0.33333334, w: 0.33333334}
      - serializedVersion: 3
        time: 0.08333397
        value: {x: -0.057137802, y: 0.70479447, z: -0.057137802, w: 0.70479447}
        inSlope: {x: -0.75267684, y: -0.059697323, z: -0.75267684, w: -0.059697323}
        outSlope: {x: -0.75267684, y: -0.059697323, z: -0.75267684, w: -0.059697323}
        tangentMode: 0
        weightedMode: 0
        inWeight: {x: 0.33333334, y: 0.33333334, z: 0.33333334, w: 0.33333334}
        outWeight: {x: 0.33333334, y: 0.33333334, z: 0.33333334, w: 0.33333334}
      - serializedVersion: 3
        time: 0.16666794
        value: {x: -0.10921222, y: 0.698622, z: -0.10921222, w: 0.698622}
        inSlope: {x: -0.3662961, y: -0.053665027, z: -0.3662961, w: -0.053665027}
        outSlope: {x: -0.3662961, y: -0.053665027, z: -0.3662961, w: -0.053665027}
        tangentMode: 0
        weightedMode: 0
        inWeight: {x: 0.33333334, y: 0.33333334, z: 0.33333334, w: 0.33333334}
        outWeight: {x: 0.33333334, y: 0.33333334, z: 0.33333334, w: 0.33333334}
      - serializedVersion: 3
        time: 0.2500019
        value: {x: -0.1026531, y: 0.7149432, z: -0.10742033, w: 0.6832127}
        inSlope: {x: 0.5877914, y: 0.69343984, z: 0.45023188, w: -0.60125476}
        outSlope: {x: 0.5877914, y: 0.69343984, z: 0.45023188, w: -0.60125476}
        tangentMode: 0
        weightedMode: 0
        inWeight: {x: 0.33333334, y: 0.33333334, z: 0.33333334, w: 0.33333334}
        outWeight: {x: 0.33333334, y: 0.33333334, z: 0.33333334, w: 0.33333334}
      - serializedVersion: 3
        time: 0.33333397
        value: {x: -0.032520704, y: 0.7985108, z: -0.04331345, w: 0.59953886}
        inSlope: {x: 0.75228167, y: 0.9109573, z: 0.8538947, w: -1.0904267}
        outSlope: {x: 0.75228167, y: 0.9109573, z: 0.8538947, w: -1.0904267}
        tangentMode: 0
        weightedMode: 0
        inWeight: {x: 0.33333334, y: 0.33333334, z: 0.33333334, w: 0.33333334}
        outWeight: {x: 0.33333334, y: 0.33333334, z: 0.33333334, w: 0.33333334}
      - serializedVersion: 3
        time: 0.3750019
        value: {x: -0.0060659098, y: 0.83093566, z: -0.009061271, w: 0.5562617}
        inSlope: {x: 0.43695956, y: 0.538294, z: 0.59308606, w: -0.74703}
        outSlope: {x: 0.43695956, y: 0.538294, z: 0.59308606, w: -0.74703}
        tangentMode: 0
        weightedMode: 0
        inWeight: {x: 0.33333334, y: 0.33333334, z: 0.33333334, w: 0.33333334}
        outWeight: {x: 0.33333334, y: 0.33333334, z: 0.33333334, w: 0.33333334}
      - serializedVersion: 3
        time: 0.5000019
        value: {x: 0.0038931614, y: 0.8433693, z: 0.0061110733, w: 0.5372855}
        inSlope: {x: 0, y: 0, z: 0, w: 0}
        outSlope: {x: 0, y: 0, z: 0, w: 0}
        tangentMode: 0
        weightedMode: 0
        inWeight: {x: 0.33333334, y: 0.33333334, z: 0.33333334, w: 0.33333334}
        outWeight: {x: 0.33333334, y: 0.33333334, z: 0.33333334, w: 0.33333334}
      - serializedVersion: 3
        time: 0.83333397
        value: {x: 0.0038877118, y: 0.8438505, z: 0.0061146, w: 0.5365417}
        inSlope: {x: 0.0002806404, y: -0.024795374, z: -0.00018009606, w: 0.0386703}
        outSlope: {x: 0.0002806404, y: -0.024795374, z: -0.00018009606, w: 0.0386703}
        tangentMode: 0
        weightedMode: 0
        inWeight: {x: 0.33333334, y: 0.33333334, z: 0.33333334, w: 0.33333334}
        outWeight: {x: 0.33333334, y: 0.33333334, z: 0.33333334, w: 0.33333334}
      m_PreInfinity: 2
      m_PostInfinity: 2
      m_RotationOrder: 4
    path: Body_joint/Gun_joint
  - curve:
      serializedVersion: 2
      m_Curve:
      - serializedVersion: 3
        time: 0
        value: {x: -0.0051235585, y: -0.70708823, z: -0.0051235585, w: 0.70708823}
        inSlope: {x: 0, y: 0, z: 0, w: 0}
        outSlope: {x: 0, y: 0, z: 0, w: 0}
        tangentMode: 0
        weightedMode: 0
        inWeight: {x: 0.33333334, y: 0.33333334, z: 0.33333334, w: 0.33333334}
        outWeight: {x: 0.33333334, y: 0.33333334, z: 0.33333334, w: 0.33333334}
      - serializedVersion: 3
        time: 0.83333397
        value: {x: -0.0051235585, y: -0.70708823, z: -0.0051235585, w: 0.70708823}
        inSlope: {x: 0, y: 0, z: 0, w: 0}
        outSlope: {x: 0, y: 0, z: 0, w: 0}
        tangentMode: 0
        weightedMode: 0
        inWeight: {x: 0.33333334, y: 0.33333334, z: 0.33333334, w: 0.33333334}
        outWeight: {x: 0.33333334, y: 0.33333334, z: 0.33333334, w: 0.33333334}
      m_PreInfinity: 2
      m_PostInfinity: 2
      m_RotationOrder: 4
    path: Body_joint/Gun_joint/Gun_joint 1
  - curve:
      serializedVersion: 2
      m_Curve:
      - serializedVersion: 3
        time: 0
        value: {x: 0, y: -0, z: -0, w: 1}
        inSlope: {x: 0, y: 0, z: 0, w: 0}
        outSlope: {x: 0, y: 0, z: 0, w: 0}
        tangentMode: 0
        weightedMode: 0
        inWeight: {x: 0.33333334, y: 0.33333334, z: 0.33333334, w: 0.33333334}
        outWeight: {x: 0.33333334, y: 0.33333334, z: 0.33333334, w: 0.33333334}
      - serializedVersion: 3
        time: 0.83333397
        value: {x: 0, y: -0, z: -0, w: 1}
        inSlope: {x: 0, y: 0, z: 0, w: 0}
        outSlope: {x: 0, y: 0, z: 0, w: 0}
        tangentMode: 0
        weightedMode: 0
        inWeight: {x: 0.33333334, y: 0.33333334, z: 0.33333334, w: 0.33333334}
        outWeight: {x: 0.33333334, y: 0.33333334, z: 0.33333334, w: 0.33333334}
      m_PreInfinity: 2
      m_PostInfinity: 2
      m_RotationOrder: 4
    path: Body_joint/Light_joint
  m_CompressedRotationCurves: []
  m_EulerCurves: []
  m_PositionCurves:
  - curve:
      serializedVersion: 2
      m_Curve:
      - serializedVersion: 3
        time: 0
        value: {x: -0.0003353377, y: 1.8973548, z: 5.7683255e-17}
        inSlope: {x: -2.323326e-18, y: -0.49920163, z: -0.64799136}
        outSlope: {x: -5.4208454e-18, y: -0.49921477, z: -0.64802074}
        tangentMode: 0
        weightedMode: 0
        inWeight: {x: 0.33333334, y: 0.33333334, z: 0.33333334}
        outWeight: {x: 0.33333334, y: 0.33333334, z: 0.33333334}
      - serializedVersion: 3
        time: 0.04166794
        value: {x: -0.0003353377, y: 1.855755, z: -0.054}
        inSlope: {x: -2.3232197e-18, y: -1.7855867, z: -2.3039799}
        outSlope: {x: -5.4210936e-18, y: -1.7864549, z: -2.3051283}
        tangentMode: 0
        weightedMode: 0
        inWeight: {x: 0.33333334, y: 0.33333334, z: 0.33333334}
        outWeight: {x: 0.33333334, y: 0.33333334, z: 0.33333334}
      - serializedVersion: 3
        time: 0.08333397
        value: {x: -0.0003353377, y: 1.748555, z: -0.192}
        inSlope: {x: -2.323326e-18, y: -3.0439482, z: -3.888987}
        outSlope: {x: -5.4210936e-18, y: -3.0436168, z: -3.8885224}
        tangentMode: 0
        weightedMode: 0
        inWeight: {x: 0.33333334, y: 0.33333334, z: 0.33333334}
        outWeight: {x: 0.33333334, y: 0.33333334, z: 0.33333334}
      - serializedVersion: 3
        time: 0.16666794
        value: {x: -0.0003353377, y: 1.442955, z: -0.576}
        inSlope: {x: -2.3232197e-18, y: -3.6576324, z: -4.464043}
        outSlope: {x: -5.4210936e-18, y: -3.6588473, z: -4.465503}
        tangentMode: 0
        weightedMode: 0
        inWeight: {x: 0.33333334, y: 0.33333334, z: 0.33333334}
        outWeight: {x: 0.33333334, y: 0.33333334, z: 0.33333334}
      - serializedVersion: 3
        time: 0.25
        value: {x: -0.0003353377, y: 1.141355, z: -0.9239999}
        inSlope: {x: -2.323326e-18, y: -4.0798984, z: -4.463901}
        outSlope: {x: -5.4208454e-18, y: -4.080032, z: -4.4640307}
        tangentMode: 0
        weightedMode: 0
        inWeight: {x: 0.33333334, y: 0.33333334, z: 0.33333334}
        outWeight: {x: 0.33333334, y: 0.33333334, z: 0.33333334}
      - serializedVersion: 3
        time: 0.375
        value: {x: -0.0003353377, y: 0.649355, z: -1.4459999}
        inSlope: {x: -2.323326e-18, y: -2.20797, z: -2.3039677}
        outSlope: {x: -5.4208454e-18, y: -2.2079806, z: -2.303987}
        tangentMode: 0
        weightedMode: 0
        inWeight: {x: 0.33333334, y: 0.33333334, z: 0.33333334}
        outWeight: {x: 0.33333334, y: 0.33333334, z: 0.33333334}
      - serializedVersion: 3
        time: 0.41666794
        value: {x: -0.0003353377, y: 0.597355, z: -1.5}
        inSlope: {x: -2.3232197e-18, y: -0.62401694, z: -0.648023}
        outSlope: {x: -5.4210936e-18, y: -0.6240003, z: -0.64800435}
        tangentMode: 0
        weightedMode: 0
        inWeight: {x: 0.33333334, y: 0.33333334, z: 0.33333334}
        outWeight: {x: 0.33333334, y: 0.33333334, z: 0.33333334}
      - serializedVersion: 3
        time: 0.45833397
        value: {x: -0.0003353377, y: 0.597355, z: -1.5}
        inSlope: {x: -2.323326e-18, y: 0.000032338703, z: 0.00004085307}
        outSlope: {x: -5.4210936e-18, y: 5.5512e-15, z: -0}
        tangentMode: 0
        weightedMode: 0
        inWeight: {x: 0.33333334, y: 0.33333334, z: 0.33333334}
        outWeight: {x: 0.33333334, y: 0.33333334, z: 0.33333334}
      - serializedVersion: 3
        time: 0.79166794
        value: {x: -0.0003353377, y: 0.597355, z: -1.5}
        inSlope: {x: -2.3232197e-18, y: 2.378977e-15, z: -0}
        outSlope: {x: -5.4210936e-18, y: -0.0000016996453, z: -0.000010214206}
        tangentMode: 0
        weightedMode: 0
        inWeight: {x: 0.33333334, y: 0.33333334, z: 0.33333334}
        outWeight: {x: 0.33333334, y: 0.33333334, z: 0.33333334}
      - serializedVersion: 3
        time: 0.83333397
        value: {x: -0.0003353377, y: 0.59906423, z: -1.4980282}
        inSlope: {x: 0, y: 0.11006546, z: 0.12699795}
        outSlope: {x: 0, y: 0.11006546, z: 0.12699795}
        tangentMode: 0
        weightedMode: 0
        inWeight: {x: 0.33333334, y: 0.33333334, z: 0.33333334}
        outWeight: {x: 0.33333334, y: 0.33333334, z: 0.33333334}
      m_PreInfinity: 2
      m_PostInfinity: 2
      m_RotationOrder: 4
    path: Body_joint
  - curve:
      serializedVersion: 2
      m_Curve:
      - serializedVersion: 3
        time: 0
        value: {x: 0.03353377, y: 44.166805, z: 58.59039}
        inSlope: {x: -17.64915, y: 113.81181, z: 40.279667}
        outSlope: {x: -17.649965, y: 113.816, z: 40.281906}
        tangentMode: 0
        weightedMode: 0
        inWeight: {x: 0.33333334, y: 0.33333334, z: 0.33333334}
        outWeight: {x: 0.33333334, y: 0.33333334, z: 0.33333334}
      - serializedVersion: 3
        time: 0.04166794
        value: {x: -1.4372483, y: 50.030342, z: 62.216248}
        inSlope: {x: -59.73592, y: 167.20488, z: 153.17213}
        outSlope: {x: -59.765667, y: 167.27365, z: 153.24786}
        tangentMode: 0
        weightedMode: 0
        inWeight: {x: 0.33333334, y: 0.33333334, z: 0.33333334}
        outWeight: {x: 0.33333334, y: 0.33333334, z: 0.33333334}
      - serializedVersion: 3
        time: 0.08333397
        value: {x: -4.944498, y: 58.100517, z: 71.35483}
        inSlope: {x: -92.34495, y: 196.02644, z: 254.24254}
        outSlope: {x: -92.332535, y: 195.99533, z: 254.21149}
        tangentMode: 0
        weightedMode: 0
        inWeight: {x: 0.33333334, y: 0.33333334, z: 0.33333334}
        outWeight: {x: 0.33333334, y: 0.33333334, z: 0.33333334}
      - serializedVersion: 3
        time: 0.125
        value: {x: -9.13057, y: 66.36115, z: 83.39765}
        inSlope: {x: -92.317604, y: 176.34259, z: 292.56918}
        outSlope: {x: -92.32037, y: 176.34763, z: 292.58008}
        tangentMode: 0
        weightedMode: 0
        inWeight: {x: 0.33333334, y: 0.33333334, z: 0.33333334}
        outWeight: {x: 0.33333334, y: 0.33333334, z: 0.33333334}
      - serializedVersion: 3
        time: 0.16666794
        value: {x: -12.637819, y: 72.79607, z: 95.73624}
        inSlope: {x: -59.73764, y: 108.338234, z: 268.3769}
        outSlope: {x: -59.75881, y: 108.36425, z: 268.46252}
        tangentMode: 0
        weightedMode: 0
        inWeight: {x: 0.33333334, y: 0.33333334, z: 0.33333334}
        outWeight: {x: 0.33333334, y: 0.33333334, z: 0.33333334}
      - serializedVersion: 3
        time: 0.20833397
        value: {x: -14.108602, y: 75.38908, z: 105.76209}
        inSlope: {x: 71.48676, y: -7.831888, z: 222.78835}
        outSlope: {x: 71.50863, y: -7.8535995, z: 222.74661}
        tangentMode: 0
        weightedMode: 0
        inWeight: {x: 0.33333334, y: 0.33333334, z: 0.33333334}
        outWeight: {x: 0.33333334, y: 0.33333334, z: 0.33333334}
      - serializedVersion: 3
        time: 0.25
        value: {x: -6.6797047, y: 72.14196, z: 114.296234}
        inSlope: {x: 301.7181, y: -131.87805, z: 207.78317}
        outSlope: {x: 301.73358, y: -131.88464, z: 207.78745}
        tangentMode: 0
        weightedMode: 0
        inWeight: {x: 0.33333334, y: 0.33333334, z: 0.33333334}
        outWeight: {x: 0.33333334, y: 0.33333334, z: 0.33333334}
      - serializedVersion: 3
        time: 0.29166794
        value: {x: 11.035357, y: 64.39884, z: 123.07765}
        inSlope: {x: 466.30817, y: -203.81935, z: 198.9446}
        outSlope: {x: 466.49185, y: -203.90028, z: 199.01321}
        tangentMode: 0
        weightedMode: 0
        inWeight: {x: 0.33333334, y: 0.33333334, z: 0.33333334}
        outWeight: {x: 0.33333334, y: 0.33333334, z: 0.33333334}
      - serializedVersion: 3
        time: 0.33333397
        value: {x: 32.179142, y: 55.157047, z: 130.87483}
        inSlope: {x: 466.45422, y: -203.88371, z: 160.59709}
        outSlope: {x: 466.36725, y: -203.84576, z: 160.56262}
        tangentMode: 0
        weightedMode: 0
        inWeight: {x: 0.33333334, y: 0.33333334, z: 0.33333334}
        outWeight: {x: 0.33333334, y: 0.33333334, z: 0.33333334}
      - serializedVersion: 3
        time: 0.375
        value: {x: 49.894203, y: 47.41392, z: 136.45625}
        inSlope: {x: 301.7211, y: -131.8803, z: 92.58587}
        outSlope: {x: 301.72476, y: -131.88194, z: 92.58703}
        tangentMode: 0
        weightedMode: 0
        inWeight: {x: 0.33333334, y: 0.33333334, z: 0.33333334}
        outWeight: {x: 0.33333334, y: 0.33333334, z: 0.33333334}
      - serializedVersion: 3
        time: 0.41666794
        value: {x: 57.3231, y: 44.166805, z: 138.5904}
        inSlope: {x: 89.149284, y: -38.967033, z: 25.609093}
        outSlope: {x: 89.147896, y: -38.965767, z: 25.60987}
        tangentMode: 0
        weightedMode: 0
        inWeight: {x: 0.33333334, y: 0.33333334, z: 0.33333334}
        outWeight: {x: 0.33333334, y: 0.33333334, z: 0.33333334}
      - serializedVersion: 3
        time: 0.45833397
        value: {x: 57.3231, y: 44.166805, z: 138.5904}
        inSlope: {x: -0.0035941126, y: 0.0018517199, z: -0.0008711809}
        outSlope: {x: 6.0904596e-13, y: 7.105536e-13, z: 1.4211072e-12}
        tangentMode: 0
        weightedMode: 0
        inWeight: {x: 0.33333334, y: 0.33333334, z: 0.33333334}
        outWeight: {x: 0.33333334, y: 0.33333334, z: 0.33333334}
      - serializedVersion: 3
        time: 0.83333397
        value: {x: 57.3231, y: 44.166805, z: 138.5904}
        inSlope: {x: -4.9840326, y: 3.0452298e-13, z: -6.958114}
        outSlope: {x: -4.984454, y: 7.105536e-13, z: -6.960397}
        tangentMode: 0
        weightedMode: 0
        inWeight: {x: 0.33333334, y: 0.33333334, z: 0.33333334}
        outWeight: {x: 0.33333334, y: 0.33333334, z: 0.33333334}
      m_PreInfinity: 2
      m_PostInfinity: 2
      m_RotationOrder: 4
    path: Body_joint/Eye_joint
  - curve:
      serializedVersion: 2
      m_Curve:
      - serializedVersion: 3
        time: 0
        value: {x: 0, y: 0.056334678, z: 11.379605}
        inSlope: {x: 0, y: 0, z: 0}
        outSlope: {x: 0, y: 0, z: 0}
        tangentMode: 0
        weightedMode: 0
        inWeight: {x: 0.33333334, y: 0.33333334, z: 0.33333334}
        outWeight: {x: 0.33333334, y: 0.33333334, z: 0.33333334}
      - serializedVersion: 3
        time: 0.375
        value: {x: -0, y: 0.056334678, z: 11.379605}
        inSlope: {x: -0, y: 1.4869286e-16, z: 1.1419611e-13}
        outSlope: {x: -0, y: 3.469341e-16, z: 0.00010889415}
        tangentMode: 0
        weightedMode: 0
        inWeight: {x: 0.33333334, y: 0.33333334, z: 0.33333334}
        outWeight: {x: 0.33333334, y: 0.33333334, z: 0.33333334}
      - serializedVersion: 3
        time: 0.45833397
        value: {x: -0, y: 0.056334678, z: 11.1171055}
        inSlope: {x: -0, y: 1.4869286e-16, z: -11.701948}
        outSlope: {x: -0, y: 3.4695e-16, z: -11.701576}
        tangentMode: 0
        weightedMode: 0
        inWeight: {x: 0.33333334, y: 0.33333334, z: 0.33333334}
        outWeight: {x: 0.33333334, y: 0.33333334, z: 0.33333334}
      - serializedVersion: 3
        time: 0.79166794
        value: {x: -0, y: 0.056334678, z: 2.2671053}
        inSlope: {x: -0, y: 1.4868606e-16, z: -11.7002325}
        outSlope: {x: -0, y: 3.4695e-16, z: -11.702669}
        tangentMode: 0
        weightedMode: 0
        inWeight: {x: 0.33333334, y: 0.33333334, z: 0.33333334}
        outWeight: {x: 0.33333334, y: 0.33333334, z: 0.33333334}
      - serializedVersion: 3
        time: 0.83333397
        value: {x: -0, y: 0.056334678, z: 2.0046053}
        inSlope: {x: -0, y: 1.4869286e-16, z: -2.3360274}
        outSlope: {x: -0, y: 3.4695e-16, z: -2.3344123}
        tangentMode: 0
        weightedMode: 0
        inWeight: {x: 0.33333334, y: 0.33333334, z: 0.33333334}
        outWeight: {x: 0.33333334, y: 0.33333334, z: 0.33333334}
      m_PreInfinity: 2
      m_PostInfinity: 2
      m_RotationOrder: 4
    path: Body_joint/Eye_joint/Aim_joint
  - curve:
      serializedVersion: 2
      m_Curve:
      - serializedVersion: 3
        time: 0
        value: {x: 0, y: -0.056334674, z: 2.7603993}
        inSlope: {x: 0, y: 0, z: 0}
        outSlope: {x: 0, y: 0, z: 0}
        tangentMode: 0
        weightedMode: 0
        inWeight: {x: 0.33333334, y: 0.33333334, z: 0.33333334}
        outWeight: {x: 0.33333334, y: 0.33333334, z: 0.33333334}
      - serializedVersion: 3
        time: 0.375
        value: {x: -0, y: -0.056334678, z: 2.7603993}
        inSlope: {x: -0, y: -1.4869286e-16, z: 1.9032686e-14}
        outSlope: {x: -0, y: -3.469341e-16, z: 0.00007452874}
        tangentMode: 0
        weightedMode: 0
        inWeight: {x: 0.33333334, y: 0.33333334, z: 0.33333334}
        outWeight: {x: 0.33333334, y: 0.33333334, z: 0.33333334}
      - serializedVersion: 3
        time: 0.41666794
        value: {x: -0, y: -0.056334678, z: 2.7603993}
        inSlope: {x: -0, y: -1.4868606e-16, z: -13.439592}
        outSlope: {x: -0, y: -3.4695e-16, z: -13.447522}
        tangentMode: 0
        weightedMode: 0
        inWeight: {x: 0.33333334, y: 0.33333334, z: 0.33333334}
        outWeight: {x: 0.33333334, y: 0.33333334, z: 0.33333334}
      - serializedVersion: 3
        time: 0.45833397
        value: {x: -0, y: -0.056334678, z: 1.6403993}
        inSlope: {x: -0, y: -1.4869286e-16, z: -49.927986}
        outSlope: {x: -0, y: -3.4695e-16, z: -49.927197}
        tangentMode: 0
        weightedMode: 0
        inWeight: {x: 0.33333334, y: 0.33333334, z: 0.33333334}
        outWeight: {x: 0.33333334, y: 0.33333334, z: 0.33333334}
      - serializedVersion: 3
        time: 0.5
        value: {x: -0, y: -0.056334678, z: -1.3996007}
        inSlope: {x: -0, y: -1.4869286e-16, z: -90.237335}
        outSlope: {x: -0, y: -3.469341e-16, z: -90.24105}
        tangentMode: 0
        weightedMode: 0
        inWeight: {x: 0.33333334, y: 0.33333334, z: 0.33333334}
        outWeight: {x: 0.33333334, y: 0.33333334, z: 0.33333334}
      - serializedVersion: 3
        time: 0.58333397
        value: {x: -0, y: -0.056334678, z: -11.319601}
        inSlope: {x: -0, y: -1.4869286e-16, z: -136.3582}
        outSlope: {x: -0, y: -3.4695e-16, z: -136.33743}
        tangentMode: 0
        weightedMode: 0
        inWeight: {x: 0.33333334, y: 0.33333334, z: 0.33333334}
        outWeight: {x: 0.33333334, y: 0.33333334, z: 0.33333334}
      - serializedVersion: 3
        time: 0.79166794
        value: {x: -0, y: -0.056334678, z: -36.119602}
        inSlope: {x: -0, y: -1.4868606e-16, z: -49.921097}
        outSlope: {x: -0, y: -3.4695e-16, z: -49.93164}
        tangentMode: 0
        weightedMode: 0
        inWeight: {x: 0.33333334, y: 0.33333334, z: 0.33333334}
        outWeight: {x: 0.33333334, y: 0.33333334, z: 0.33333334}
      - serializedVersion: 3
        time: 0.83333397
        value: {x: 0, y: -0.05633468, z: -37.282032}
        inSlope: {x: 0, y: 0, z: -8.560486}
        outSlope: {x: 0, y: 0, z: -8.560486}
        tangentMode: 0
        weightedMode: 0
        inWeight: {x: 0.33333334, y: 0.33333334, z: 0.33333334}
        outWeight: {x: 0.33333334, y: 0.33333334, z: 0.33333334}
      m_PreInfinity: 2
      m_PostInfinity: 2
      m_RotationOrder: 4
    path: Body_joint/Eye_joint/Aim_joint/Aim_joint2
  - curve:
      serializedVersion: 2
      m_Curve:
      - serializedVersion: 3
        time: 0
        value: {x: -51.096622, y: -38.05653, z: 0}
        inSlope: {x: -7.8554535, y: 9.741251, z: -45.761818}
        outSlope: {x: -7.8549304, y: 9.741839, z: -45.763874}
        tangentMode: 0
        weightedMode: 0
        inWeight: {x: 0.33333334, y: 0.33333334, z: 0.33333334}
        outWeight: {x: 0.33333334, y: 0.33333334, z: 0.33333334}
      - serializedVersion: 3
        time: 0.04166794
        value: {x: -51.751236, y: -37.24475, z: -3.8135357}
        inSlope: {x: -26.58692, y: 32.970676, z: -165.22517}
        outSlope: {x: -26.600054, y: 32.98744, z: -165.3077}
        tangentMode: 0
        weightedMode: 0
        inWeight: {x: 0.33333334, y: 0.33333334, z: 0.33333334}
        outWeight: {x: 0.33333334, y: 0.33333334, z: 0.33333334}
      - serializedVersion: 3
        time: 0.08333397
        value: {x: -53.312237, y: -35.30897, z: -13.76889}
        inSlope: {x: -41.100483, y: 50.969105, z: -285.96698}
        outSlope: {x: -41.09536, y: 50.962162, z: -285.93433}
        tangentMode: 0
        weightedMode: 0
        inWeight: {x: 0.33333334, y: 0.33333334, z: 0.33333334}
        outWeight: {x: 0.33333334, y: 0.33333334, z: 0.33333334}
      - serializedVersion: 3
        time: 0.16666794
        value: {x: -56.736362, y: -31.062742, z: -43.19354}
        inSlope: {x: -26.588156, y: 32.971043, z: -366.82935}
        outSlope: {x: -26.605246, y: 32.979485, z: -366.95456}
        tangentMode: 0
        weightedMode: 0
        inWeight: {x: 0.33333334, y: 0.33333334, z: 0.33333334}
        outWeight: {x: 0.33333334, y: 0.33333334, z: 0.33333334}
      - serializedVersion: 3
        time: 0.20833397
        value: {x: -57.390976, y: -30.250963, z: -58.207073}
        inSlope: {x: 125.478806, y: 0.005176847, z: -389.86356}
        outSlope: {x: 125.50202, y: -0.0007626297, z: -389.80762}
        tangentMode: 0
        weightedMode: 0
        inWeight: {x: 0.33333334, y: 0.33333334, z: 0.33333334}
        outWeight: {x: 0.33333334, y: 0.33333334, z: 0.33333334}
      - serializedVersion: 3
        time: 0.25
        value: {x: -46.27933, y: -31.062742, z: -75.67354}
        inSlope: {x: 451.2904, y: -32.969185, z: -466.44147}
        outSlope: {x: 451.3128, y: -32.971043, z: -466.45776}
        tangentMode: 0
        weightedMode: 0
        inWeight: {x: 0.33333334, y: 0.33333334, z: 0.33333334}
        outWeight: {x: 0.33333334, y: 0.33333334, z: 0.33333334}
      - serializedVersion: 3
        time: 0.29166794
        value: {x: -19.782331, y: -32.998524, z: -97.078186}
        inSlope: {x: 697.4723, y: -50.954723, z: -507.06757}
        outSlope: {x: 697.74744, y: -50.974804, z: -507.2495}
        tangentMode: 0
        weightedMode: 0
        inWeight: {x: 0.33333334, y: 0.33333334, z: 0.33333334}
        outWeight: {x: 0.33333334, y: 0.33333334, z: 0.33333334}
      - serializedVersion: 3
        time: 0.33333397
        value: {x: 11.843118, y: -35.30897, z: -117.92889}
        inSlope: {x: 697.6911, y: -50.971317, z: -440.0078}
        outSlope: {x: 697.5604, y: -50.961914, z: -439.91895}
        tangentMode: 0
        weightedMode: 0
        inWeight: {x: 0.33333334, y: 0.33333334, z: 0.33333334}
        outWeight: {x: 0.33333334, y: 0.33333334, z: 0.33333334}
      - serializedVersion: 3
        time: 0.375
        value: {x: 38.340115, y: -37.24475, z: -133.73354}
        inSlope: {x: 451.29477, y: -32.970654, z: -264.84653}
        outSlope: {x: 451.3006, y: -32.970676, z: -264.85062}
        tangentMode: 0
        weightedMode: 0
        inWeight: {x: 0.33333334, y: 0.33333334, z: 0.33333334}
        outWeight: {x: 0.33333334, y: 0.33333334, z: 0.33333334}
      - serializedVersion: 3
        time: 0.41666794
        value: {x: 49.45176, y: -38.05653, z: -140}
        inSlope: {x: 133.34418, y: -9.741839, z: -75.19926}
        outSlope: {x: 133.34172, y: -9.741251, z: -75.1969}
        tangentMode: 0
        weightedMode: 0
        inWeight: {x: 0.33333334, y: 0.33333334, z: 0.33333334}
        outWeight: {x: 0.33333334, y: 0.33333334, z: 0.33333334}
      - serializedVersion: 3
        time: 0.45833397
        value: {x: 49.45176, y: -38.05653, z: -140}
        inSlope: {x: -0.005118698, y: 0.00054467475, z: 0.0047934516}
        outSlope: {x: -0, y: -3.552768e-13, z: -1.6241224e-12}
        tangentMode: 0
        weightedMode: 0
        inWeight: {x: 0.33333334, y: 0.33333334, z: 0.33333334}
        outWeight: {x: 0.33333334, y: 0.33333334, z: 0.33333334}
      - serializedVersion: 3
        time: 0.79166794
        value: {x: 49.45176, y: -38.05653, z: -140}
        inSlope: {x: -0, y: -1.5225452e-13, z: 1.6240481e-12}
        outSlope: {x: 0.0013076555, y: -3.552768e-13, z: -0.0021794974}
        tangentMode: 0
        weightedMode: 0
        inWeight: {x: 0.33333334, y: 0.33333334, z: 0.33333334}
        outWeight: {x: 0.33333334, y: 0.33333334, z: 0.33333334}
      - serializedVersion: 3
        time: 0.83333397
        value: {x: 49.319584, y: -38.05653, z: -139.81596}
        inSlope: {x: -8.512909, y: 0, z: 11.853394}
        outSlope: {x: -8.512909, y: 0, z: 11.853394}
        tangentMode: 0
        weightedMode: 0
        inWeight: {x: 0.33333334, y: 0.33333334, z: 0.33333334}
        outWeight: {x: 0.33333334, y: 0.33333334, z: 0.33333334}
      m_PreInfinity: 2
      m_PostInfinity: 2
      m_RotationOrder: 4
    path: Body_joint/Ammo_joint
  - curve:
      serializedVersion: 2
      m_Curve:
      - serializedVersion: 3
        time: 0
        value: {x: -46.860897, y: 1.0658141e-14, z: 0}
        inSlope: {x: 0, y: 0, z: 0}
        outSlope: {x: 0, y: 0, z: 0}
        tangentMode: 0
        weightedMode: 0
        inWeight: {x: 0.33333334, y: 0.33333334, z: 0.33333334}
        outWeight: {x: 0.33333334, y: 0.33333334, z: 0.33333334}
      - serializedVersion: 3
        time: 0.83333397
        value: {x: -46.860897, y: 1.0658141e-14, z: 0}
        inSlope: {x: 0, y: 0, z: 0}
        outSlope: {x: 0, y: 0, z: 0}
        tangentMode: 0
        weightedMode: 0
        inWeight: {x: 0.33333334, y: 0.33333334, z: 0.33333334}
        outWeight: {x: 0.33333334, y: 0.33333334, z: 0.33333334}
      m_PreInfinity: 2
      m_PostInfinity: 2
      m_RotationOrder: 4
    path: Body_joint/Ammo_joint/Ammo_joint2
  - curve:
      serializedVersion: 2
      m_Curve:
      - serializedVersion: 3
        time: 0
        value: {x: 0.03353377, y: -29.910578, z: 49.877167}
        inSlope: {x: 0, y: 0, z: 0}
        outSlope: {x: 0, y: 0, z: 0}
        tangentMode: 0
        weightedMode: 0
        inWeight: {x: 0.33333334, y: 0.33333334, z: 0.33333334}
        outWeight: {x: 0.33333334, y: 0.33333334, z: 0.33333334}
      - serializedVersion: 3
        time: 0.83333397
        value: {x: 0.03353377, y: -29.910578, z: 49.877167}
        inSlope: {x: 0, y: 0, z: 0}
        outSlope: {x: 0, y: 0, z: 0}
        tangentMode: 0
        weightedMode: 0
        inWeight: {x: 0.33333334, y: 0.33333334, z: 0.33333334}
        outWeight: {x: 0.33333334, y: 0.33333334, z: 0.33333334}
      m_PreInfinity: 2
      m_PostInfinity: 2
      m_RotationOrder: 4
    path: Body_joint/Gun_joint
  - curve:
      serializedVersion: 2
      m_Curve:
      - serializedVersion: 3
        time: 0
        value: {x: -139.57898, y: -1.0658141e-14, z: 4.6489136e-14}
        inSlope: {x: 0, y: 0, z: 0}
        outSlope: {x: 0, y: 0, z: 0}
        tangentMode: 0
        weightedMode: 0
        inWeight: {x: 0.33333334, y: 0.33333334, z: 0.33333334}
        outWeight: {x: 0.33333334, y: 0.33333334, z: 0.33333334}
      - serializedVersion: 3
        time: 0.83333397
        value: {x: -139.57898, y: -1.0658141e-14, z: 4.6489136e-14}
        inSlope: {x: 0, y: 0, z: 0}
        outSlope: {x: 0, y: 0, z: 0}
        tangentMode: 0
        weightedMode: 0
        inWeight: {x: 0.33333334, y: 0.33333334, z: 0.33333334}
        outWeight: {x: 0.33333334, y: 0.33333334, z: 0.33333334}
      m_PreInfinity: 2
      m_PostInfinity: 2
      m_RotationOrder: 4
    path: Body_joint/Gun_joint/Gun_joint 1
  - curve:
      serializedVersion: 2
      m_Curve:
      - serializedVersion: 3
        time: 0
        value: {x: 0.0025159644, y: -144.96646, z: 0}
        inSlope: {x: 0, y: 0, z: 0}
        outSlope: {x: 0, y: 0, z: 0}
        tangentMode: 0
        weightedMode: 0
        inWeight: {x: 0.33333334, y: 0.33333334, z: 0.33333334}
        outWeight: {x: 0.33333334, y: 0.33333334, z: 0.33333334}
      - serializedVersion: 3
        time: 0.375
        value: {x: 0.0025159644, y: -144.96646, z: 0}
        inSlope: {x: 8.67375e-17, y: 1.6241224e-12, z: -0}
        outSlope: {x: 3.7171515e-17, y: -0.00043566196, z: 0.000019945075}
        tangentMode: 0
        weightedMode: 0
        inWeight: {x: 0.33333334, y: 0.33333334, z: 0.33333334}
        outWeight: {x: 0.33333334, y: 0.33333334, z: 0.33333334}
      - serializedVersion: 3
        time: 0.41666794
        value: {x: 0.0025159644, y: -144.96646, z: 0}
        inSlope: {x: 8.673353e-17, y: 9.735247, z: -2.6088114}
        outSlope: {x: 3.7173215e-17, y: 9.741357, z: -2.6103494}
        tangentMode: 0
        weightedMode: 0
        inWeight: {x: 0.33333334, y: 0.33333334, z: 0.33333334}
        outWeight: {x: 0.33333334, y: 0.33333334, z: 0.33333334}
      - serializedVersion: 3
        time: 0.45833397
        value: {x: 0.0025159644, y: -144.15508, z: -0.217408}
        inSlope: {x: 8.67375e-17, y: 36.16824, z: -9.691735}
        outSlope: {x: 3.7173215e-17, y: 36.1705, z: -9.691586}
        tangentMode: 0
        weightedMode: 0
        inWeight: {x: 0.33333334, y: 0.33333334, z: 0.33333334}
        outWeight: {x: 0.33333334, y: 0.33333334, z: 0.33333334}
      - serializedVersion: 3
        time: 0.5
        value: {x: 0.0025159644, y: -141.95277, z: -0.80751544}
        inSlope: {x: 8.67375e-17, y: 65.37365, z: -17.516354}
        outSlope: {x: 3.7171515e-17, y: 65.3742, z: -17.517092}
        tangentMode: 0
        weightedMode: 0
        inWeight: {x: 0.33333334, y: 0.33333334, z: 0.33333334}
        outWeight: {x: 0.33333334, y: 0.33333334, z: 0.33333334}
      - serializedVersion: 3
        time: 0.70833397
        value: {x: 0.0025159644, y: -122.24788, z: -6.087424}
        inSlope: {x: 8.67375e-17, y: 86.26483, z: -23.114655}
        outSlope: {x: 3.7173215e-17, y: 86.24699, z: -23.110178}
        tangentMode: 0
        weightedMode: 0
        inWeight: {x: 0.33333334, y: 0.33333334, z: 0.33333334}
        outWeight: {x: 0.33333334, y: 0.33333334, z: 0.33333334}
      - serializedVersion: 3
        time: 0.79166794
        value: {x: 0.0025159644, y: -116.80006, z: -7.5471635}
        inSlope: {x: 8.673353e-17, y: 36.164417, z: -9.690338}
        outSlope: {x: 3.7173215e-17, y: 36.173504, z: -9.692476}
        tangentMode: 0
        weightedMode: 0
        inWeight: {x: 0.33333334, y: 0.33333334, z: 0.33333334}
        outWeight: {x: 0.33333334, y: 0.33333334, z: 0.33333334}
      - serializedVersion: 3
        time: 0.83333397
        value: {x: 0.0025159644, y: -115.95792, z: -7.772808}
        inSlope: {x: 0, y: 6.20166, z: -1.661705}
        outSlope: {x: 0, y: 6.20166, z: -1.661705}
        tangentMode: 0
        weightedMode: 0
        inWeight: {x: 0.33333334, y: 0.33333334, z: 0.33333334}
        outWeight: {x: 0.33333334, y: 0.33333334, z: 0.33333334}
      m_PreInfinity: 2
      m_PostInfinity: 2
      m_RotationOrder: 4
    path: Body_joint/Light_joint
  m_ScaleCurves:
  - curve:
      serializedVersion: 2
      m_Curve:
      - serializedVersion: 3
        time: 0
        value: {x: 0.01, y: 0.01, z: 0.01}
        inSlope: {x: 0, y: 0, z: 0}
        outSlope: {x: 0, y: 0, z: 0}
        tangentMode: 0
        weightedMode: 0
        inWeight: {x: 0.33333334, y: 0.33333334, z: 0.33333334}
        outWeight: {x: 0.33333334, y: 0.33333334, z: 0.33333334}
      - serializedVersion: 3
        time: 0.83333397
        value: {x: 0.01, y: 0.01, z: 0.01}
        inSlope: {x: 0, y: 0, z: 0}
        outSlope: {x: 0, y: 0, z: 0}
        tangentMode: 0
        weightedMode: 0
        inWeight: {x: 0.33333334, y: 0.33333334, z: 0.33333334}
        outWeight: {x: 0.33333334, y: 0.33333334, z: 0.33333334}
      m_PreInfinity: 2
      m_PostInfinity: 2
      m_RotationOrder: 4
    path: Body_joint
  - curve:
      serializedVersion: 2
      m_Curve:
      - serializedVersion: 3
        time: 0
        value: {x: 1, y: 1, z: 1}
        inSlope: {x: 0, y: 0, z: 0}
        outSlope: {x: 0, y: 0, z: 0}
        tangentMode: 0
        weightedMode: 0
        inWeight: {x: 0.33333334, y: 0.33333334, z: 0.33333334}
        outWeight: {x: 0.33333334, y: 0.33333334, z: 0.33333334}
      - serializedVersion: 3
        time: 0.83333397
        value: {x: 1, y: 1, z: 1}
        inSlope: {x: 0, y: 0, z: 0}
        outSlope: {x: 0, y: 0, z: 0}
        tangentMode: 0
        weightedMode: 0
        inWeight: {x: 0.33333334, y: 0.33333334, z: 0.33333334}
        outWeight: {x: 0.33333334, y: 0.33333334, z: 0.33333334}
      m_PreInfinity: 2
      m_PostInfinity: 2
      m_RotationOrder: 4
    path: Body_joint/Eye_joint
  - curve:
      serializedVersion: 2
      m_Curve:
      - serializedVersion: 3
        time: 0
        value: {x: 1, y: 1, z: 1}
        inSlope: {x: 0.00000071525574, y: 0.00000071525574, z: 0.00000071525574}
        outSlope: {x: 0.00000071525574, y: 0.00000071525574, z: 0.00000071525574}
        tangentMode: 0
        weightedMode: 0
        inWeight: {x: 0.33333334, y: 0.33333334, z: 0.33333334}
        outWeight: {x: 0.33333334, y: 0.33333334, z: 0.33333334}
      - serializedVersion: 3
        time: 0.3750019
        value: {x: 1, y: 1, z: 1}
        inSlope: {x: -0.0000021458, y: -0.0000021458, z: -0.0000021458}
        outSlope: {x: -0.0000021458, y: -0.0000021458, z: -0.0000021458}
        tangentMode: 0
        weightedMode: 0
        inWeight: {x: 0.33333334, y: 0.33333334, z: 0.33333334}
        outWeight: {x: 0.33333334, y: 0.33333334, z: 0.33333334}
      - serializedVersion: 3
        time: 0.45833397
        value: {x: 0.97725, y: 0.97725, z: 0.97725}
        inSlope: {x: -1.0140076, y: -1.0140076, z: -1.0140076}
        outSlope: {x: -1.0140076, y: -1.0140076, z: -1.0140076}
        tangentMode: 0
        weightedMode: 0
        inWeight: {x: 0.33333334, y: 0.33333334, z: 0.33333334}
        outWeight: {x: 0.33333334, y: 0.33333334, z: 0.33333334}
      - serializedVersion: 3
        time: 0.79166794
        value: {x: 0.21024938, y: 0.21024938, z: 0.21024938}
        inSlope: {x: -1.0139874, y: -1.0139874, z: -1.0139874}
        outSlope: {x: -1.0139874, y: -1.0139874, z: -1.0139874}
        tangentMode: 0
        weightedMode: 0
        inWeight: {x: 0.33333334, y: 0.33333334, z: 0.33333334}
        outWeight: {x: 0.33333334, y: 0.33333334, z: 0.33333334}
      - serializedVersion: 3
        time: 0.83333397
        value: {x: 0.188414, y: 0.188414, z: 0.188414}
        inSlope: {x: -0.11821764, y: -0.11821764, z: -0.11821764}
        outSlope: {x: -0.11821764, y: -0.11821764, z: -0.11821764}
        tangentMode: 0
        weightedMode: 0
        inWeight: {x: 0.33333334, y: 0.33333334, z: 0.33333334}
        outWeight: {x: 0.33333334, y: 0.33333334, z: 0.33333334}
      m_PreInfinity: 2
      m_PostInfinity: 2
      m_RotationOrder: 4
    path: Body_joint/Eye_joint/Aim_joint
  - curve:
      serializedVersion: 2
      m_Curve:
      - serializedVersion: 3
        time: 0
        value: {x: 1.0018367, y: 1.0018367, z: 1.0018367}
        inSlope: {x: -0.035264228, y: -0.035264228, z: -0.035264228}
        outSlope: {x: -0.035264228, y: -0.035264228, z: -0.035264228}
        tangentMode: 0
        weightedMode: 0
        inWeight: {x: 0.33333334, y: 0.33333334, z: 0.33333334}
        outWeight: {x: 0.33333334, y: 0.33333334, z: 0.33333334}
      - serializedVersion: 3
        time: 0.08333397
        value: {x: 1, y: 1, z: 1}
        inSlope: {x: 0, y: 0, z: 0}
        outSlope: {x: 0, y: 0, z: 0}
        tangentMode: 0
        weightedMode: 0
        inWeight: {x: 0.33333334, y: 0.33333334, z: 0.33333334}
        outWeight: {x: 0.33333334, y: 0.33333334, z: 0.33333334}
      - serializedVersion: 3
        time: 0.3750019
        value: {x: 1, y: 1, z: 1}
        inSlope: {x: -0.0000021458, y: -0.0000021458, z: -0.0000021458}
        outSlope: {x: -0.0000021458, y: -0.0000021458, z: -0.0000021458}
        tangentMode: 0
        weightedMode: 0
        inWeight: {x: 0.33333334, y: 0.33333334, z: 0.33333334}
        outWeight: {x: 0.33333334, y: 0.33333334, z: 0.33333334}
      - serializedVersion: 3
        time: 0.45833397
        value: {x: 0.97725, y: 0.97725, z: 0.97725}
        inSlope: {x: -1.0140076, y: -1.0140076, z: -1.0140076}
        outSlope: {x: -1.0140076, y: -1.0140076, z: -1.0140076}
        tangentMode: 0
        weightedMode: 0
        inWeight: {x: 0.33333334, y: 0.33333334, z: 0.33333334}
        outWeight: {x: 0.33333334, y: 0.33333334, z: 0.33333334}
      - serializedVersion: 3
        time: 0.79166794
        value: {x: 0.21024938, y: 0.21024938, z: 0.21024938}
        inSlope: {x: -1.0139874, y: -1.0139874, z: -1.0139874}
        outSlope: {x: -1.0139874, y: -1.0139874, z: -1.0139874}
        tangentMode: 0
        weightedMode: 0
        inWeight: {x: 0.33333334, y: 0.33333334, z: 0.33333334}
        outWeight: {x: 0.33333334, y: 0.33333334, z: 0.33333334}
      - serializedVersion: 3
        time: 0.83333397
        value: {x: 0.188414, y: 0.188414, z: 0.188414}
        inSlope: {x: -0.11821764, y: -0.11821764, z: -0.11821764}
        outSlope: {x: -0.11821764, y: -0.11821764, z: -0.11821764}
        tangentMode: 0
        weightedMode: 0
        inWeight: {x: 0.33333334, y: 0.33333334, z: 0.33333334}
        outWeight: {x: 0.33333334, y: 0.33333334, z: 0.33333334}
      m_PreInfinity: 2
      m_PostInfinity: 2
      m_RotationOrder: 4
    path: Body_joint/Eye_joint/Aim_joint/Aim_joint2
  - curve:
      serializedVersion: 2
      m_Curve:
      - serializedVersion: 3
        time: 0
        value: {x: 1, y: 1, z: 1}
        inSlope: {x: 0, y: 0, z: 0}
        outSlope: {x: 0, y: 0, z: 0}
        tangentMode: 0
        weightedMode: 0
        inWeight: {x: 0.33333334, y: 0.33333334, z: 0.33333334}
        outWeight: {x: 0.33333334, y: 0.33333334, z: 0.33333334}
      - serializedVersion: 3
        time: 0.83333397
        value: {x: 1, y: 1, z: 1}
        inSlope: {x: 0, y: 0, z: 0}
        outSlope: {x: 0, y: 0, z: 0}
        tangentMode: 0
        weightedMode: 0
        inWeight: {x: 0.33333334, y: 0.33333334, z: 0.33333334}
        outWeight: {x: 0.33333334, y: 0.33333334, z: 0.33333334}
      m_PreInfinity: 2
      m_PostInfinity: 2
      m_RotationOrder: 4
    path: Body_joint/Ammo_joint
  - curve:
      serializedVersion: 2
      m_Curve:
      - serializedVersion: 3
        time: 0
        value: {x: 1, y: 1, z: 1}
        inSlope: {x: 0, y: 0, z: 0}
        outSlope: {x: 0, y: 0, z: 0}
        tangentMode: 0
        weightedMode: 0
        inWeight: {x: 0.33333334, y: 0.33333334, z: 0.33333334}
        outWeight: {x: 0.33333334, y: 0.33333334, z: 0.33333334}
      - serializedVersion: 3
        time: 0.83333397
        value: {x: 1, y: 1, z: 1}
        inSlope: {x: 0, y: 0, z: 0}
        outSlope: {x: 0, y: 0, z: 0}
        tangentMode: 0
        weightedMode: 0
        inWeight: {x: 0.33333334, y: 0.33333334, z: 0.33333334}
        outWeight: {x: 0.33333334, y: 0.33333334, z: 0.33333334}
      m_PreInfinity: 2
      m_PostInfinity: 2
      m_RotationOrder: 4
    path: Body_joint/Ammo_joint/Ammo_joint2
  - curve:
      serializedVersion: 2
      m_Curve:
      - serializedVersion: 3
        time: 0
        value: {x: 1, y: 1, z: 1}
        inSlope: {x: 0, y: 0, z: 0}
        outSlope: {x: 0, y: 0, z: 0}
        tangentMode: 0
        weightedMode: 0
        inWeight: {x: 0.33333334, y: 0.33333334, z: 0.33333334}
        outWeight: {x: 0.33333334, y: 0.33333334, z: 0.33333334}
      - serializedVersion: 3
        time: 0.83333397
        value: {x: 1, y: 1, z: 1}
        inSlope: {x: 0, y: 0, z: 0}
        outSlope: {x: 0, y: 0, z: 0}
        tangentMode: 0
        weightedMode: 0
        inWeight: {x: 0.33333334, y: 0.33333334, z: 0.33333334}
        outWeight: {x: 0.33333334, y: 0.33333334, z: 0.33333334}
      m_PreInfinity: 2
      m_PostInfinity: 2
      m_RotationOrder: 4
    path: Body_joint/Gun_joint
  - curve:
      serializedVersion: 2
      m_Curve:
      - serializedVersion: 3
        time: 0
        value: {x: 1, y: 1, z: 1}
        inSlope: {x: 0, y: 0, z: 0}
        outSlope: {x: 0, y: 0, z: 0}
        tangentMode: 0
        weightedMode: 0
        inWeight: {x: 0.33333334, y: 0.33333334, z: 0.33333334}
        outWeight: {x: 0.33333334, y: 0.33333334, z: 0.33333334}
      - serializedVersion: 3
        time: 0.83333397
        value: {x: 1, y: 1, z: 1}
        inSlope: {x: 0, y: 0, z: 0}
        outSlope: {x: 0, y: 0, z: 0}
        tangentMode: 0
        weightedMode: 0
        inWeight: {x: 0.33333334, y: 0.33333334, z: 0.33333334}
        outWeight: {x: 0.33333334, y: 0.33333334, z: 0.33333334}
      m_PreInfinity: 2
      m_PostInfinity: 2
      m_RotationOrder: 4
    path: Body_joint/Gun_joint/Gun_joint 1
  - curve:
      serializedVersion: 2
      m_Curve:
      - serializedVersion: 3
        time: 0
        value: {x: 1.0000002, y: 1.0000002, z: 1.0000002}
        inSlope: {x: 0.00000026009263, y: 0.00000026009263, z: 0.00000026009263}
        outSlope: {x: 0.00000026009263, y: 0.00000026009263, z: 0.00000026009263}
        tangentMode: 0
        weightedMode: 0
        inWeight: {x: 0.33333334, y: 0.33333334, z: 0.33333334}
        outWeight: {x: 0.33333334, y: 0.33333334, z: 0.33333334}
      - serializedVersion: 3
        time: 0.3750019
        value: {x: 1, y: 1, z: 1}
        inSlope: {x: -0.0000021458, y: -0.0000021458, z: -0.0000021458}
        outSlope: {x: -0.0000021458, y: -0.0000021458, z: -0.0000021458}
        tangentMode: 0
        weightedMode: 0
        inWeight: {x: 0.33333334, y: 0.33333334, z: 0.33333334}
        outWeight: {x: 0.33333334, y: 0.33333334, z: 0.33333334}
      - serializedVersion: 3
        time: 0.45833397
        value: {x: 0.98075, y: 0.98075, z: 0.98075}
        inSlope: {x: -0.8580059, y: -0.8580059, z: -0.8580059}
        outSlope: {x: -0.8580059, y: -0.8580059, z: -0.8580059}
        tangentMode: 0
        weightedMode: 0
        inWeight: {x: 0.33333334, y: 0.33333334, z: 0.33333334}
        outWeight: {x: 0.33333334, y: 0.33333334, z: 0.33333334}
      - serializedVersion: 3
        time: 0.79166794
        value: {x: 0.33174947, y: 0.33174947, z: 0.33174947}
        inSlope: {x: -0.8579899, y: -0.8579899, z: -0.8579899}
        outSlope: {x: -0.8579899, y: -0.8579899, z: -0.8579899}
        tangentMode: 0
        weightedMode: 0
        inWeight: {x: 0.33333334, y: 0.33333334, z: 0.33333334}
        outWeight: {x: 0.33333334, y: 0.33333334, z: 0.33333334}
      - serializedVersion: 3
        time: 0.83333397
        value: {x: 0.31327337, y: 0.31327337, z: 0.31327337}
        inSlope: {x: -0.100030616, y: -0.100030616, z: -0.100030616}
        outSlope: {x: -0.100030616, y: -0.100030616, z: -0.100030616}
        tangentMode: 0
        weightedMode: 0
        inWeight: {x: 0.33333334, y: 0.33333334, z: 0.33333334}
        outWeight: {x: 0.33333334, y: 0.33333334, z: 0.33333334}
      m_PreInfinity: 2
      m_PostInfinity: 2
      m_RotationOrder: 4
    path: Body_joint/Light_joint
  m_FloatCurves: []
  m_PPtrCurves: []
  m_SampleRate: 24
  m_WrapMode: 0
  m_Bounds:
    m_Center: {x: 0, y: 0, z: 0}
    m_Extent: {x: 0, y: 0, z: 0}
  m_ClipBindingConstant:
    genericBindings:
    - serializedVersion: 2
      path: 1900149535
      attribute: 1
      script: {fileID: 0}
      typeID: 4
      customType: 0
      isPPtrCurve: 0
    - serializedVersion: 2
      path: 1751724140
      attribute: 1
      script: {fileID: 0}
      typeID: 4
      customType: 0
      isPPtrCurve: 0
    - serializedVersion: 2
      path: 2246581724
      attribute: 1
      script: {fileID: 0}
      typeID: 4
      customType: 0
      isPPtrCurve: 0
    - serializedVersion: 2
      path: 434510512
      attribute: 1
      script: {fileID: 0}
      typeID: 4
      customType: 0
      isPPtrCurve: 0
    - serializedVersion: 2
      path: 1310308839
      attribute: 1
      script: {fileID: 0}
      typeID: 4
      customType: 0
      isPPtrCurve: 0
    - serializedVersion: 2
      path: 658152890
      attribute: 1
      script: {fileID: 0}
      typeID: 4
      customType: 0
      isPPtrCurve: 0
    - serializedVersion: 2
      path: 1900149535
      attribute: 2
      script: {fileID: 0}
      typeID: 4
      customType: 0
      isPPtrCurve: 0
    - serializedVersion: 2
      path: 1751724140
      attribute: 2
      script: {fileID: 0}
      typeID: 4
      customType: 0
      isPPtrCurve: 0
    - serializedVersion: 2
      path: 434510512
      attribute: 2
      script: {fileID: 0}
      typeID: 4
      customType: 0
      isPPtrCurve: 0
    - serializedVersion: 2
      path: 1310308839
      attribute: 2
      script: {fileID: 0}
      typeID: 4
      customType: 0
      isPPtrCurve: 0
    - serializedVersion: 2
      path: 322394463
      attribute: 2
      script: {fileID: 0}
      typeID: 4
      customType: 0
      isPPtrCurve: 0
    - serializedVersion: 2
      path: 2246581724
      attribute: 3
      script: {fileID: 0}
      typeID: 4
      customType: 0
      isPPtrCurve: 0
    - serializedVersion: 2
      path: 434510512
      attribute: 3
      script: {fileID: 0}
      typeID: 4
      customType: 0
      isPPtrCurve: 0
    - serializedVersion: 2
      path: 658152890
      attribute: 3
      script: {fileID: 0}
      typeID: 4
      customType: 0
      isPPtrCurve: 0
    - serializedVersion: 2
      path: 3004899604
      attribute: 1
      script: {fileID: 0}
      typeID: 4
      customType: 0
      isPPtrCurve: 0
    - serializedVersion: 2
      path: 322394463
      attribute: 1
      script: {fileID: 0}
      typeID: 4
      customType: 0
      isPPtrCurve: 0
    - serializedVersion: 2
      path: 3131532575
      attribute: 1
      script: {fileID: 0}
      typeID: 4
      customType: 0
      isPPtrCurve: 0
    - serializedVersion: 2
      path: 2246581724
      attribute: 2
      script: {fileID: 0}
      typeID: 4
      customType: 0
      isPPtrCurve: 0
    - serializedVersion: 2
      path: 3004899604
      attribute: 2
      script: {fileID: 0}
      typeID: 4
      customType: 0
      isPPtrCurve: 0
    - serializedVersion: 2
      path: 3131532575
      attribute: 2
      script: {fileID: 0}
      typeID: 4
      customType: 0
      isPPtrCurve: 0
    - serializedVersion: 2
      path: 658152890
      attribute: 2
      script: {fileID: 0}
      typeID: 4
      customType: 0
      isPPtrCurve: 0
    - serializedVersion: 2
      path: 1900149535
      attribute: 3
      script: {fileID: 0}
      typeID: 4
      customType: 0
      isPPtrCurve: 0
    - serializedVersion: 2
      path: 1751724140
      attribute: 3
      script: {fileID: 0}
      typeID: 4
      customType: 0
      isPPtrCurve: 0
    - serializedVersion: 2
      path: 1310308839
      attribute: 3
      script: {fileID: 0}
      typeID: 4
      customType: 0
      isPPtrCurve: 0
    - serializedVersion: 2
      path: 3004899604
      attribute: 3
      script: {fileID: 0}
      typeID: 4
      customType: 0
      isPPtrCurve: 0
    - serializedVersion: 2
      path: 322394463
      attribute: 3
      script: {fileID: 0}
      typeID: 4
      customType: 0
      isPPtrCurve: 0
    - serializedVersion: 2
      path: 3131532575
      attribute: 3
      script: {fileID: 0}
      typeID: 4
      customType: 0
      isPPtrCurve: 0
    pptrCurveMapping: []
  m_AnimationClipSettings:
    serializedVersion: 2
    m_AdditiveReferencePoseClip: {fileID: 0}
    m_AdditiveReferencePoseTime: 0
    m_StartTime: 0
    m_StopTime: 0.83333397
    m_OrientationOffsetY: 0
    m_Level: 0
    m_CycleOffset: 0
    m_HasAdditiveReferencePose: 0
    m_LoopTime: 0
    m_LoopBlend: 0
    m_LoopBlendOrientation: 0
    m_LoopBlendPositionY: 0
    m_LoopBlendPositionXZ: 0
    m_KeepOriginalOrientation: 0
    m_KeepOriginalPositionY: 1
    m_KeepOriginalPositionXZ: 0
    m_HeightFromFeet: 0
    m_Mirror: 0
  m_EditorCurves: []
  m_EulerEditorCurves: []
  m_HasGenericRootTransform: 0
  m_HasMotionFloatCurves: 0
  m_Events: []
